…
actual_bike <- bike %>%
               filter (year >= 2016) %>%
               group_by(year,month) %>%
               summarise(actual = mean(bikes_hired))

expected_bike <- actual_bike %>%
                 group_by(month) %>%
                 summarise(expected = mean(actual))

comparison_bike <- left_join(actual_bike, expected_bike, by = "month")

comparison_bike

## # A tibble: 67 x 4
## # Groups:   year [6]
##     year month actual expected
##    <dbl> <ord>  <dbl>    <dbl>
##  1  2016 Jan   18914.   19763.
##  2  2016 Feb   20608.   21433.
##  3  2016 Mar   21435    22491.
##  4  2016 Apr   25444.   27392.
##  5  2016 May   32699.   33163.
##  6  2016 Jun   32108.   36618.
##  7  2016 Jul   38336.   37974.
##  8  2016 Aug   37368.   34955.
##  9  2016 Sep   35101.   33994.
## 10  2016 Oct   30488.   29660.
## # ... with 57 more rows
…
